Chapter 4: Data Manipulation, Wrangling with dplyr
…
Data subsets with filter()

filter() allows you to select a subset of rows in a data frame. The first argument is the name of the data frame. The second and subsequent arguments are the expressions that filter the data frame:

Lets look at all the flights that departed on January 1st and where the departure time was delayed by at least 15 minutes.

filter(flights, 
       month == 1, 
       day == 1,
       dep_delay >= 15)

## # A tibble: 163 x 19
##     year month   day dep_time sched_dep_time dep_delay arr_time
##    <int> <int> <int>    <int>          <int>     <dbl>    <int>
##  1  2013     1     1      632            608        24      740
##  2  2013     1     1      732            645        47     1011
##  3  2013     1     1      749            710        39      939
##  4  2013     1     1      811            630       101     1047
##  5  2013     1     1      826            715        71     1136
##  6  2013     1     1      848           1835       853     1001
##  7  2013     1     1      903            820        43     1045
##  8  2013     1     1      906            843        23     1134
##  9  2013     1     1      909            810        59     1331
## 10  2013     1     1      920            905        15     1039
## # ... with 153 more rows, and 12 more variables: sched_arr_time <int>,
## #   arr_delay <dbl>, carrier <chr>, flight <int>, tailnum <chr>,
## #   origin <chr>, dest <chr>, air_time <dbl>, distance <dbl>, hour <dbl>,
## #   minute <dbl>, time_hour <dttm>

How does this compare to other syntax weve learned about?

# This gets clunky fast...
flights[flights$month == 1 & flights$day == 1 & flights$dep_delay >= 15, ]

## # A tibble: 167 x 19
##     year month   day dep_time sched_dep_time dep_delay arr_time
##    <int> <int> <int>    <int>          <int>     <dbl>    <int>
##  1  2013     1     1      632            608        24      740
##  2  2013     1     1      732            645        47     1011
##  3  2013     1     1      749            710        39      939
##  4  2013     1     1      811            630       101     1047
##  5  2013     1     1      826            715        71     1136
##  6  2013     1     1      848           1835       853     1001
##  7  2013     1     1      903            820        43     1045
##  8  2013     1     1      906            843        23     1134
##  9  2013     1     1      909            810        59     1331
## 10  2013     1     1      920            905        15     1039
## # ... with 157 more rows, and 12 more variables: sched_arr_time <int>,
## #   arr_delay <dbl>, carrier <chr>, flight <int>, tailnum <chr>,
## #   origin <chr>, dest <chr>, air_time <dbl>, distance <dbl>, hour <dbl>,
## #   minute <dbl>, time_hour <dttm>

Better, but the dplyr syntax

subset(flights, month == 1 & day == 1 & dep_delay >= 15)

## # A tibble: 163 x 19
##     year month   day dep_time sched_dep_time dep_delay arr_time
##    <int> <int> <int>    <int>          <int>     <dbl>    <int>
##  1  2013     1     1      632            608        24      740
##  2  2013     1     1      732            645        47     1011
##  3  2013     1     1      749            710        39      939
##  4  2013     1     1      811            630       101     1047
##  5  2013     1     1      826            715        71     1136
##  6  2013     1     1      848           1835       853     1001
##  7  2013     1     1      903            820        43     1045
##  8  2013     1     1      906            843        23     1134
##  9  2013     1     1      909            810        59     1331
## 10  2013     1     1      920            905        15     1039
## # ... with 153 more rows, and 12 more variables: sched_arr_time <int>,
## #   arr_delay <dbl>, carrier <chr>, flight <int>, tailnum <chr>,
## #   origin <chr>, dest <chr>, air_time <dbl>, distance <dbl>, hour <dbl>,
## #   minute <dbl>, time_hour <dttm>

Rearrange rows with arrange()

You can think of arrange() as a sort by operation. This function takes a data frame and a set of column names by which to order the data. Later columns are used to break ties (i.e., order within) earlier columns.

Heres an example that arranges the data in order of departure date.

arrange(flights, year, month, day)

## # A tibble: 336,776 x 19
##     year month   day dep_time sched_dep_time dep_delay arr_time
##    <int> <int> <int>    <int>          <int>     <dbl>    <int>
##  1  2013     1     1      517            515         2      830
##  2  2013     1     1      533            529         4      850
##  3  2013     1     1      542            540         2      923
##  4  2013     1     1      544            545        -1     1004
##  5  2013     1     1      554            600        -6      812
##  6  2013     1     1      554            558        -4      740
##  7  2013     1     1      555            600        -5      913
##  8  2013     1     1      557            600        -3      709
##  9  2013     1     1      557            600        -3      838
## 10  2013     1     1      558            600        -2      753
## # ... with 336,766 more rows, and 12 more variables: sched_arr_time <int>,
## #   arr_delay <dbl>, carrier <chr>, flight <int>, tailnum <chr>,
## #   origin <chr>, dest <chr>, air_time <dbl>, distance <dbl>, hour <dbl>,
## #   minute <dbl>, time_hour <dttm>

You can also add expressions to the arrange() command. For instance, if you wanted to sort the flights in descending order of departure delay, you could use the desc() command:

arrange(flights, desc(dep_delay))

## # A tibble: 336,776 x 19
##     year month   day dep_time sched_dep_time dep_delay arr_time
##    <int> <int> <int>    <int>          <int>     <dbl>    <int>
##  1  2013     1     9      641            900      1301     1242
##  2  2013     6    15     1432           1935      1137     1607
##  3  2013     1    10     1121           1635      1126     1239
##  4  2013     9    20     1139           1845      1014     1457
##  5  2013     7    22      845           1600      1005     1044
##  6  2013     4    10     1100           1900       960     1342
##  7  2013     3    17     2321            810       911      135
##  8  2013     6    27      959           1900       899     1236
##  9  2013     7    22     2257            759       898      121
## 10  2013    12     5      756           1700       896     1058
## # ... with 336,766 more rows, and 12 more variables: sched_arr_time <int>,
## #   arr_delay <dbl>, carrier <chr>, flight <int>, tailnum <chr>,
## #   origin <chr>, dest <chr>, air_time <dbl>, distance <dbl>, hour <dbl>,
## #   minute <dbl>, time_hour <dttm>

Select columns with select()

The select() function can be thought of as a substitute for the select = argument in a subset() command. One notable difference is the more flexible syntax offered by select().

# Select columns by name
select(flights, year, month, day)

## # A tibble: 336,776 x 3
##     year month   day
##    <int> <int> <int>
##  1  2013     1     1
##  2  2013     1     1
##  3  2013     1     1
##  4  2013     1     1
##  5  2013     1     1
##  6  2013     1     1
##  7  2013     1     1
##  8  2013     1     1
##  9  2013     1     1
## 10  2013     1     1
## # ... with 336,766 more rows

# Select all columns between year and day (inclusive)
select(flights, year:day)

## # A tibble: 336,776 x 3
##     year month   day
##    <int> <int> <int>
##  1  2013     1     1
##  2  2013     1     1
##  3  2013     1     1
##  4  2013     1     1
##  5  2013     1     1
##  6  2013     1     1
##  7  2013     1     1
##  8  2013     1     1
##  9  2013     1     1
## 10  2013     1     1
## # ... with 336,766 more rows

# Select all columns except those from year to day (inclusive)
select(flights, -(year:day))

## # A tibble: 336,776 x 16
##    dep_time sched_dep_time dep_delay arr_time sched_arr_time arr_delay
##       <int>          <int>     <dbl>    <int>          <int>     <dbl>
##  1      517            515         2      830            819        11
##  2      533            529         4      850            830        20
##  3      542            540         2      923            850        33
##  4      544            545        -1     1004           1022       -18
##  5      554            600        -6      812            837       -25
##  6      554            558        -4      740            728        12
##  7      555            600        -5      913            854        19
##  8      557            600        -3      709            723       -14
##  9      557            600        -3      838            846        -8
## 10      558            600        -2      753            745         8
## # ... with 336,766 more rows, and 10 more variables: carrier <chr>,
## #   flight <int>, tailnum <chr>, origin <chr>, dest <chr>, air_time <dbl>,
## #   distance <dbl>, hour <dbl>, minute <dbl>, time_hour <dttm>
…
starts_with("abc"): matches names that begin with abc.

ends_with("xyz"): matches names that end with xyz.

contains("ijk"): matches names that contain ijk.

matches("(.)\\1"): selects variables that match a regular expression. This one matches any variables that contain repeated characters. Youll learn more about regular expressions in strings.

num_range("x", 1:3) matches x1, x2 and x3.

# Pull all of the departure-related columns
select(flights, contains("dep"))

## # A tibble: 336,776 x 3
##    dep_time sched_dep_time dep_delay
##       <int>          <int>     <dbl>
##  1      517            515         2
##  2      533            529         4
##  3      542            540         2
##  4      544            545        -1
##  5      554            600        -6
##  6      554            558        -4
##  7      555            600        -5
##  8      557            600        -3
##  9      557            600        -3
## 10      558            600        -2
## # ... with 336,766 more rows

# Pull all of the arrival and departure related columns
select(flights, 
       contains("dep"),
       contains("arr"))

## # A tibble: 336,776 x 7
##    dep_time sched_dep_time dep_delay arr_time sched_arr_time arr_delay
##       <int>          <int>     <dbl>    <int>          <int>     <dbl>
##  1      517            515         2      830            819        11
##  2      533            529         4      850            830        20
##  3      542            540         2      923            850        33
##  4      544            545        -1     1004           1022       -18
##  5      554            600        -6      812            837       -25
##  6      554            558        -4      740            728        12
##  7      555            600        -5      913            854        19
##  8      557            600        -3      709            723       -14
##  9      557            600        -3      838            846        -8
## 10      558            600        -2      753            745         8
## # ... with 336,766 more rows, and 1 more variables: carrier <chr>

Add new columns with mutate()

You can think of mutate() as an improved version of the transform() command. Well illustrate a couple of advantages.

# Calculate delay reduction in travel (gain) and average speed
mutate(flights,
  gain = arr_delay - dep_delay,
  speed = distance / air_time * 60)

## # A tibble: 336,776 x 21
##     year month   day dep_time sched_dep_time dep_delay arr_time
##    <int> <int> <int>    <int>          <int>     <dbl>    <int>
##  1  2013     1     1      517            515         2      830
##  2  2013     1     1      533            529         4      850
##  3  2013     1     1      542            540         2      923
##  4  2013     1     1      544            545        -1     1004
##  5  2013     1     1      554            600        -6      812
##  6  2013     1     1      554            558        -4      740
##  7  2013     1     1      555            600        -5      913
##  8  2013     1     1      557            600        -3      709
##  9  2013     1     1      557            600        -3      838
## 10  2013     1     1      558            600        -2      753
## # ... with 336,766 more rows, and 14 more variables: sched_arr_time <int>,
## #   arr_delay <dbl>, carrier <chr>, flight <int>, tailnum <chr>,
## #   origin <chr>, dest <chr>, air_time <dbl>, distance <dbl>, hour <dbl>,
## #   minute <dbl>, time_hour <dttm>, gain <dbl>, speed <dbl>

An interesting thing that you can do with mutate() but not transform() is to create columns based on transformations of new columns that you just created within the same command. Heres an example.

mutate(flights,
  gain = arr_delay - dep_delay,
  gain_per_hour = gain / (air_time / 60)
)

## # A tibble: 336,776 x 21
##     year month   day dep_time sched_dep_time dep_delay arr_time
##    <int> <int> <int>    <int>          <int>     <dbl>    <int>
##  1  2013     1     1      517            515         2      830
##  2  2013     1     1      533            529         4      850
##  3  2013     1     1      542            540         2      923
##  4  2013     1     1      544            545        -1     1004
##  5  2013     1     1      554            600        -6      812
##  6  2013     1     1      554            558        -4      740
##  7  2013     1     1      555            600        -5      913
##  8  2013     1     1      557            600        -3      709
##  9  2013     1     1      557            600        -3      838
## 10  2013     1     1      558            600        -2      753
## # ... with 336,766 more rows, and 14 more variables: sched_arr_time <int>,
## #   arr_delay <dbl>, carrier <chr>, flight <int>, tailnum <chr>,
## #   origin <chr>, dest <chr>, air_time <dbl>, distance <dbl>, hour <dbl>,
## #   minute <dbl>, time_hour <dttm>, gain <dbl>, gain_per_hour <dbl>
…
transmute()

If all you want to keep from the mutate() are the newly formed variables, you can either chain together a mutate() with a select(), or you can directly use the transmute() command.

transmute(flights,
  gain = arr_delay - dep_delay,
  gain_per_hour = gain / (air_time / 60)
)

## # A tibble: 336,776 x 2
##     gain gain_per_hour
##    <dbl>         <dbl>
##  1     9      2.378855
##  2    16      4.229075
##  3    31     11.625000
##  4   -17     -5.573770
##  5   -19     -9.827586
##  6    16      6.400000
##  7    24      9.113924
##  8   -11    -12.452830
##  9    -5     -2.142857
## 10    10      4.347826
## # ... with 336,766 more rows
…
n_distinct(x) :the number of unique values in x.

first(x), last(x) and nth(x, n) - these work similarly to x[1], x[length(x)], and x[n] but give you more control over the result if the value is missing.

You can use these functions to, for instance, count the number of planes and number of flights for each possible destination:

destinations <- group_by(flights, dest)

summarise(destinations,
  planes = n_distinct(tailnum),
  flights = n()
)

## # A tibble: 105 x 3
##     dest planes flights
##    <chr>  <int>   <int>
##  1   ABQ    108     254
##  2   ACK     58     265
##  3   ALB    172     439
##  4   ANC      6       8
##  5   ATL   1180   17215
##  6   AUS    993    2439
##  7   AVL    159     275
##  8   BDL    186     443
##  9   BGR     46     375
## 10   BHM     45     297
## # ... with 95 more rows

Successive summaries

When you group by multiple variables, each summary peels off one level of the grouping. That makes it easy to progressively roll-up a dataset:

daily <- group_by(flights, year, month, day)

# Tabulate number of flights on each day
per_day   <- summarise(daily, flights = n())
per_day

## # A tibble: 365 x 4
## # Groups:   year, month [?]
##     year month   day flights
##    <int> <int> <int>   <int>
##  1  2013     1     1     842
##  2  2013     1     2     943
##  3  2013     1     3     914
##  4  2013     1     4     915
##  5  2013     1     5     720
##  6  2013     1     6     832
##  7  2013     1     7     933
##  8  2013     1     8     899
##  9  2013     1     9     902
## 10  2013     1    10     932
## # ... with 355 more rows
…
## # A tibble: 1 x 2
##    year flights
##   <int>   <int>
## 1  2013  336776

distinct()

distinct() allows you to identify the unique values of variables (or combinations of variables) in your data.

# How many different planes departed from NYC airports
# in 2013?
distinct(flights, tailnum)

## # A tibble: 4,044 x 1
##    tailnum
##      <chr>
##  1  N14228
##  2  N24211
##  3  N619AA
##  4  N804JB
##  5  N668DN
##  6  N39463
##  7  N516JB
##  8  N829AS
##  9  N593JB
## 10  N3ALAA
## # ... with 4,034 more rows

# How many distinct (origin, dest) pairs were there?
distinct(flights, origin, dest)

## # A tibble: 224 x 2
##    origin  dest
##     <chr> <chr>
##  1    EWR   IAH
##  2    LGA   IAH
##  3    JFK   MIA
##  4    JFK   BQN
##  5    LGA   ATL
##  6    EWR   ORD
##  7    EWR   FLL
##  8    LGA   IAD
##  9    JFK   MCO
## 10    LGA   ORD
## # ... with 214 more rows

rename()

Weve done a lot of variable renaming in this class. In most of the cases weve renamed all of the columns all at once. If we want to change only a few column names, this can get frustrating. rename() addresses precisely this issue.

rename(flights, 
       yr = year,
       dep.time = dep_time)

## # A tibble: 336,776 x 19
##       yr month   day dep.time sched_dep_time dep_delay arr_time
##    <int> <int> <int>    <int>          <int>     <dbl>    <int>
##  1  2013     1     1      517            515         2      830
##  2  2013     1     1      533            529         4      850
##  3  2013     1     1      542            540         2      923
##  4  2013     1     1      544            545        -1     1004
##  5  2013     1     1      554            600        -6      812
##  6  2013     1     1      554            558        -4      740
##  7  2013     1     1      555            600        -5      913
##  8  2013     1     1      557            600        -3      709
##  9  2013     1     1      557            600        -3      838
## 10  2013     1     1      558            600        -2      753
## # ... with 336,766 more rows, and 12 more variables: sched_arr_time <int>,
## #   arr_delay <dbl>, carrier <chr>, flight <int>, tailnum <chr>,
## #   origin <chr>, dest <chr>, air_time <dbl>, distance <dbl>, hour <dbl>,
## #   minute <dbl>, time_hour <dttm>
…
filter(
  summarise(
    select(
      group_by(flights, year, month, day),
      arr_delay, dep_delay
    ),
    mean_arr_delay = mean(arr_delay, na.rm = TRUE),
    mean_dep_delay = mean(dep_delay, na.rm = TRUE)
  ),
  mean_arr_delay > 30 | mean_dep_delay > 30
)

## Adding missing grouping variables: `year`, `month`, `day`

## # A tibble: 49 x 5
## # Groups:   year, month [11]
##     year month   day mean_arr_delay mean_dep_delay
##    <int> <int> <int>          <dbl>          <dbl>
##  1  2013     1    16       34.24736       24.61287
##  2  2013     1    31       32.60285       28.65836
##  3  2013     2    11       36.29009       39.07360
##  4  2013     2    27       31.25249       37.76327
##  5  2013     3     8       85.86216       83.53692
##  6  2013     3    18       41.29189       30.11796
##  7  2013     4    10       38.41231       33.02368
##  8  2013     4    12       36.04814       34.83843
##  9  2013     4    18       36.02848       34.91536
## 10  2013     4    19       47.91170       46.12783
## # ... with 39 more rows
…
